// Jest Snapshot v1, https://goo.gl/fbAQLP

exports[`Media view component renders correctly 1`] = `
<ForwardRef(View)>
  <TouchableOpacity
    activeOpacity={1}
    onLongPress={[Function]}
    onPress={[Function]}
    style={
      Array [
        Object {
          "alignItems": "stretch",
          "flex": 1,
        },
        Object {
          "height": 1875,
        },
      ]
    }
  >
    <ExplicitImage
      entity={
        Object {
          "attachment_guid": false,
          "blurb": false,
          "container_guid": "activityguid0",
          "custom_data": Array [
            Object {
              "height": 50,
              "width": 20,
            },
          ],
          "custom_type": false,
          "description": "Congratulations! ",
          "edited": "",
          "getThumbSource": [MockFunction] {
            "calls": Array [
              Array [
                "xlarge",
              ],
            ],
            "results": Array [
              Object {
                "isThrow": false,
                "value": Object {
                  "uri": "www.something.com",
                },
              },
            ],
          },
          "guid": "activityguid0",
          "mature": false,
          "message": "Message",
          "ownerObj": Object {
            "getAvatarSource": [Function],
            "guid": "824853017709780997",
            "subtype": false,
            "time_created": "1522036284",
            "type": "user",
          },
          "owner_guid": "824853017709780997",
          "parent_guid": "838106762591510528",
          "perma_url": false,
          "rowKey": "something0",
          "subtype": "image",
          "thumbnail_src": false,
          "title": "TITLE",
          "type": "activity",
          "wire_totals": Object {
            "tokens": 1000000000000000000,
          },
        }
      }
      imageStyle={
        Object {
          "backgroundColor": "transparent",
        }
      }
      onError={[Function]}
      source={
        Object {
          "uri": "www.something.com",
        }
      }
      style={
        Array [
          Object {
            "flex": 1,
          },
          Object {
            "height": 1875,
          },
        ]
      }
    />
  </TouchableOpacity>
</ForwardRef(View)>
`;
